…
#movies_mean<-count(movies, mean_rating) 
#movies_mean
movies_2

## # A tibble: 39 × 12
## # Groups:   director [2]
##    director rating mean_…¹ sd_ra…² count t_cri…³ se_ra…⁴ margi…⁵ ratin…⁶ ratin…⁷
##    <chr>     <dbl>   <dbl>   <dbl> <int>   <dbl>   <dbl>   <dbl>   <dbl>   <dbl>
##  1 Steven …    7.9    7.57   0.695    23    2.07   0.145   0.301    7.27    7.87
##  2 Steven …    8.1    7.57   0.695    23    2.07   0.145   0.301    7.27    7.87
##  3 Steven …    6.2    7.57   0.695    23    2.07   0.145   0.301    7.27    7.87
##  4 Steven …    8      7.57   0.695    23    2.07   0.145   0.301    7.27    7.87
##  5 Steven …    8.5    7.57   0.695    23    2.07   0.145   0.301    7.27    7.87
##  6 Steven …    6.5    7.57   0.695    23    2.07   0.145   0.301    7.27    7.87
##  7 Steven …    6.5    7.57   0.695    23    2.07   0.145   0.301    7.27    7.87
##  8 Steven …    8.6    7.57   0.695    23    2.07   0.145   0.301    7.27    7.87
##  9 Steven …    8.3    7.57   0.695    23    2.07   0.145   0.301    7.27    7.87
## 10 Steven …    7.4    7.57   0.695    23    2.07   0.145   0.301    7.27    7.87
## # … with 29 more rows, 2 more variables: highest_rating <dbl>,
## #   lowest_rating <dbl>, and abbreviated variable names ¹​mean_rating,
## #   ²​sd_rating, ³​t_critical, ⁴​se_rating, ⁵​margin_of_error, ⁶​rating_low,
## #   ⁷​rating_high
…
