…
en_new[is.na(en_new)] <- 0 #establish renewable energy usage as a percentage of energy as a whole
en_new <- en_new %>% 
mutate(percent = renew_en/ elecprod*100) %>% 
arrange(desc(percent)) %>% 
filter(renew_en != 0, percent != Inf)
en_new

## # A tibble: 196 × 13
##    country       elec_…¹ elec_…² elec_…³ elec_…⁴ elec_…⁵ elec_…⁶ elec_…⁷ elec_…⁸
##    <chr>           <dbl>   <dbl>   <dbl>   <dbl>   <dbl>   <dbl>   <dbl>   <dbl>
##  1 Albania             0 0         5.15        0 0        0        0.022 0      
##  2 Nepal               0 0         5.33        0 0        0        0.08  0.014  
##  3 Lesotho             0 0         0.541       0 0        0        0.001 0      
##  4 Bhutan              0 0         6.61        0 4.67e-5  0        0.001 0.001  
##  5 Paraguay            0 0        48.9         0 1.88e-3  0.886    0     0      
##  6 Iceland             0 0        13.3         0 2.82e-3  5.93     0     0.00642
##  7 Congo - Kins…       0 0.00246  11.0         0 1.30e-3  0.0290   0.01  0      
##  8 Ethiopia            0 0        14.0         0 5.41e-3  0.0294   0.02  0.533  
##  9 Central Afri…       0 0         0.15        0 1   e-3  0        0     0      
## 10 Costa Rica          0 0         7.75        0 9.02e-2  1.68     0.076 1.80   
## # … with 186 more rows, 4 more variables: elecprod <dbl>, elec_cons <dbl>,
## #   renew_en <dbl>, percent <dbl>, and abbreviated variable names ¹​elec_coal,
## #   ²​elec_gas, ³​elec_hydro, ⁴​elec_nuc, ⁵​elec_oil, ⁶​elec_renew_other,
## #   ⁷​elec_solar, ⁸​elec_wind
…
